AOW
Kinderbijslag
PGB

relevante variabelen:
- leeftijd
- (recente) contactmomenten
- huidige lopende zaken/regelingen
- recente browsersessies

            leeftijd    Recente contactmomenten         Lopende zaken       Recente browsersessies
Maartje     35          0                               0                   0
George      60                                                              gekeken op AOW pagina
John        20                                         Ontvanger van PGB
Ingrid      46
